<?xml version="1.0" encoding="UTF-8" standalone="no"?>
<!-- Created with Inkscape (http://www.inkscape.org/) -->

<svg
   xmlns:dc="http://purl.org/dc/elements/1.1/"
   xmlns:cc="http://creativecommons.org/ns#"
   xmlns:rdf="http://www.w3.org/1999/02/22-rdf-syntax-ns#"
   xmlns:svg="http://www.w3.org/2000/svg"
   xmlns="http://www.w3.org/2000/svg"
   xmlns:xlink="http://www.w3.org/1999/xlink"
   xmlns:sodipodi="http://sodipodi.sourceforge.net/DTD/sodipodi-0.dtd"
   xmlns:inkscape="http://www.inkscape.org/namespaces/inkscape"
   width="1279.8531"
   height="743.43768"
   id="svg2"
   sodipodi:version="0.32"
   inkscape:version="0.91 r13725"
   version="1.0"
   sodipodi:docname="ResumenParticulasInteracciones-propio.svg"
   inkscape:output_extension="org.inkscape.output.svg.inkscape">
  <defs
     id="defs4">
    <inkscape:perspective
       sodipodi:type="inkscape:persp3d"
       inkscape:vp_x="0 : 526.18109 : 1"
       inkscape:vp_y="0 : 1000 : 0"
       inkscape:vp_z="744.09448 : 526.18109 : 1"
       inkscape:persp3d-origin="372.04724 : 350.78739 : 1"
       id="perspective10" />
  </defs>
  <sodipodi:namedview
     id="base"
     pagecolor="#ffffff"
     bordercolor="#666666"
     borderopacity="1.0"
     gridtolerance="10000"
     guidetolerance="10"
     objecttolerance="10"
     inkscape:pageopacity="0.0"
     inkscape:pageshadow="2"
     inkscape:zoom="0.70710678"
     inkscape:cx="644.21872"
     inkscape:cy="426.76102"
     inkscape:document-units="px"
     inkscape:current-layer="layer1"
     showgrid="false"
     inkscape:window-width="1366"
     inkscape:window-height="744"
     inkscape:window-x="0"
     inkscape:window-y="24"
     inkscape:window-maximized="1"
     showguides="true"
     inkscape:guide-bbox="true" />
  <metadata
     id="metadata7">
    <rdf:RDF>
      <cc:Work
         rdf:about="">
        <dc:format>image/svg+xml</dc:format>
        <dc:type
           rdf:resource="http://purl.org/dc/dcmitype/StillImage" />
        <dc:title />
      </cc:Work>
    </rdf:RDF>
  </metadata>
  <g
     inkscape:label="Layer 1"
     inkscape:groupmode="layer"
     id="layer1"
     transform="translate(59.442991,-3.1526645)">
    <rect
       style="opacity:1;fill:#fff6d5;fill-opacity:1;fill-rule:nonzero;stroke:none;stroke-width:0.91683024;stroke-linejoin:miter;stroke-miterlimit:4;stroke-dasharray:none;stroke-dashoffset:0;stroke-opacity:1"
       id="rect4009-7-4-2-8-0-7-4-5-8"
       width="799.96472"
       height="446.57651"
       x="413.85153"
       y="223.48882" />
    <rect
       style="opacity:1;fill:#ffffd3;fill-opacity:1;fill-rule:nonzero;stroke:#000000;stroke-width:0.78109682;stroke-linejoin:miter;stroke-miterlimit:4;stroke-dasharray:none;stroke-dashoffset:0;stroke-opacity:1"
       id="rect4009-7-4-2-8-0-7"
       width="1239.9208"
       height="209.12439"
       x="-25.329647"
       y="8.4604797" />
    <rect
       style="opacity:1;fill:#62fdde;fill-opacity:0.5024155;fill-rule:nonzero;stroke:none;stroke-width:0.55251408;stroke-linejoin:miter;stroke-miterlimit:4;stroke-dasharray:none;stroke-dashoffset:0;stroke-opacity:1"
       id="rect4009-7-4-2-8-0-7-4-8"
       width="794.67218"
       height="162.6839"
       x="414.37646"
       y="47.237072" />
    <rect
       style="opacity:1;fill:#cccccc;fill-opacity:1;fill-rule:nonzero;stroke:#999999;stroke-width:0.16031533;stroke-linejoin:miter;stroke-miterlimit:4;stroke-dasharray:none;stroke-dashoffset:0;stroke-opacity:1"
       id="rect4009-7-4-2-8-0-4-7-7-9-4"
       width="259.07742"
       height="42.160858"
       x="804.01831"
       y="555.50995" />
    <path
       style="fill:#ff9955;fill-rule:evenodd;stroke:#000000;stroke-width:1px;stroke-linecap:butt;stroke-linejoin:miter;stroke-opacity:1"
       d="m 519.13122,229.60792 0,-23.75"
       id="path5308-2-8-8-83-4"
       inkscape:connector-curvature="0"
       sodipodi:nodetypes="cc" />
    <rect
       style="opacity:1;fill:#cccccc;fill-opacity:1;fill-rule:nonzero;stroke:#000000;stroke-width:0.11650468;stroke-linejoin:miter;stroke-miterlimit:4;stroke-dasharray:none;stroke-dashoffset:0;stroke-opacity:1"
       id="rect4009-7-4-2-8-0-4-7-7-9-7"
       width="120.52829"
       height="47.861523"
       x="1081.6672"
       y="156.97421" />
    <rect
       style="opacity:1;fill:#00aad4;fill-opacity:1;fill-rule:nonzero;stroke:#000000;stroke-width:0.11394439;stroke-linejoin:miter;stroke-miterlimit:4;stroke-dasharray:none;stroke-dashoffset:0;stroke-opacity:1"
       id="rect4009-7-4-2-8-0-9-9-9"
       width="111.9745"
       height="49.278297"
       x="951.68152"
       y="156.61931" />
    <rect
       style="opacity:1;fill:#2ad4ff;fill-opacity:1;fill-rule:nonzero;stroke:#000000;stroke-width:0.12436809;stroke-linejoin:miter;stroke-miterlimit:4;stroke-dasharray:none;stroke-dashoffset:0;stroke-opacity:1"
       id="rect4009-7-4-2-8-0-9-9"
       width="135.36966"
       height="48.560764"
       x="804.02258"
       y="157.33165" />
    <rect
       style="opacity:1;fill:#80e5ff;fill-opacity:1;fill-rule:nonzero;stroke:#000000;stroke-width:0.14569567;stroke-linejoin:miter;stroke-miterlimit:4;stroke-dasharray:none;stroke-dashoffset:0;stroke-opacity:1"
       id="rect4009-7-4-2-8-0-4-3"
       width="166.46103"
       height="54.196293"
       x="624.17517"
       y="229.63879"
       ry="16.5" />
    <rect
       style="opacity:1;fill:#80e5ff;fill-opacity:1;fill-rule:nonzero;stroke:#000000;stroke-width:0.13630912;stroke-linejoin:miter;stroke-miterlimit:4;stroke-dasharray:none;stroke-dashoffset:0;stroke-opacity:1"
       id="rect4009-7-4-2-8-0-9"
       width="165.0562"
       height="47.841721"
       x="625.58466"
       y="157.63051" />
    <rect
       style="opacity:1;fill:#aaeeff;fill-opacity:1;fill-rule:nonzero;stroke:#000000;stroke-width:0.17291324;stroke-linejoin:miter;stroke-miterlimit:4;stroke-dasharray:none;stroke-dashoffset:0;stroke-opacity:1"
       id="rect4009-7-4-2-8-0-4-7"
       width="184.11148"
       height="69.018318"
       x="424.93546"
       y="307.14127" />
    <rect
       style="opacity:1;fill:#aaeeff;fill-opacity:1;fill-rule:nonzero;stroke:#000000;stroke-width:0.15322298;stroke-linejoin:miter;stroke-miterlimit:4;stroke-dasharray:none;stroke-dashoffset:0;stroke-opacity:1"
       id="rect4009-7-4-2-8-0-4"
       width="184.13116"
       height="54.188766"
       x="425.63272"
       y="229.34964"
       ry="15" />
    <rect
       style="opacity:1;fill:#aaeeff;fill-opacity:1;fill-rule:nonzero;stroke:#000000;stroke-width:0.14502047;stroke-linejoin:miter;stroke-miterlimit:4;stroke-dasharray:none;stroke-dashoffset:0;stroke-opacity:1"
       id="rect4009-7-4-2-8-0"
       width="184.13939"
       height="48.540115"
       x="425.6286"
       y="156.63487" />
    <rect
       style="opacity:1;fill:#ffd7bd;fill-opacity:1;fill-rule:nonzero;stroke:none;stroke-width:0.67101622;stroke-linejoin:miter;stroke-miterlimit:4;stroke-dasharray:none;stroke-dashoffset:0;stroke-opacity:1"
       id="rect4009-7-4-2-8-0-7-4-5"
       width="428.27234"
       height="446.82233"
       x="-23.970478"
       y="222.6588" />
    <rect
       style="opacity:1;fill:#e9afaf;fill-opacity:1;fill-rule:nonzero;stroke:#000000;stroke-width:0.11684576;stroke-linejoin:miter;stroke-miterlimit:4;stroke-dasharray:none;stroke-dashoffset:0;stroke-opacity:1"
       id="rect4009-7-4-3-4-3"
       width="97.90052"
       height="59.269302"
       x="241.86916"
       y="559.61993" />
    <rect
       style="opacity:1;fill:#ccffaa;fill-opacity:1;fill-rule:nonzero;stroke:none;stroke-width:0.4031924;stroke-linejoin:miter;stroke-miterlimit:4;stroke-dasharray:none;stroke-dashoffset:0;stroke-opacity:1"
       id="rect4009-7-4-2-8-0-7-4"
       width="420.0549"
       height="162.83322"
       x="-17.033302"
       y="47.869503" />
    <rect
       style="opacity:1;fill:#e5ff80;fill-opacity:1;fill-rule:nonzero;stroke:#000000;stroke-width:0.10579092;stroke-linejoin:miter;stroke-miterlimit:4;stroke-dasharray:none;stroke-dashoffset:0;stroke-opacity:1"
       id="rect4009-7-4-2-8"
       width="97.911575"
       height="48.579346"
       x="287.85312"
       y="157.38126" />
    <rect
       style="opacity:1;fill:#ff9955;fill-opacity:1;fill-rule:nonzero;stroke:#000000;stroke-width:0.10579092;stroke-linejoin:miter;stroke-miterlimit:4;stroke-dasharray:none;stroke-dashoffset:0;stroke-opacity:1"
       id="rect4009-7-4-2"
       width="97.911575"
       height="48.579346"
       x="78.348465"
       y="158.08833" />
    <rect
       style="opacity:1;fill:#de8787;fill-opacity:1;fill-rule:nonzero;stroke:#000000;stroke-width:0.08147193;stroke-linejoin:miter;stroke-miterlimit:4;stroke-dasharray:none;stroke-dashoffset:0;stroke-opacity:1"
       id="rect4009-7-4-3-4"
       width="97.935898"
       height="28.804676"
       x="241.60695"
       y="518.52039" />
    <rect
       style="opacity:1;fill:#ffb380;fill-opacity:1;fill-rule:nonzero;stroke:#000000;stroke-width:0.08147193;stroke-linejoin:miter;stroke-miterlimit:4;stroke-dasharray:none;stroke-dashoffset:0;stroke-opacity:1"
       id="rect4009-7-4-3"
       width="97.935898"
       height="28.804676"
       x="189.35149"
       y="463.60223" />
    <rect
       style="opacity:1;fill:#ff9955;fill-opacity:1;fill-rule:nonzero;stroke:#000000;stroke-width:0.08147193;stroke-linejoin:miter;stroke-miterlimit:4;stroke-dasharray:none;stroke-dashoffset:0;stroke-opacity:1"
       id="rect4009-7-4"
       width="97.935898"
       height="28.804676"
       x="82.351471"
       y="240.60223" />
    <rect
       style="opacity:1;fill:#ffd42a;fill-opacity:1;fill-rule:nonzero;stroke:#000000;stroke-width:0.18625182;stroke-linejoin:miter;stroke-miterlimit:4;stroke-dasharray:none;stroke-dashoffset:0;stroke-opacity:1"
       id="rect4009-7-8"
       width="97.831116"
       height="150.69989"
       x="188.50389"
       y="301.25082" />
    <rect
       style="opacity:1;fill:#ffdd55;fill-opacity:1;fill-rule:nonzero;stroke:#000000;stroke-width:0.18594307;stroke-linejoin:miter;stroke-miterlimit:4;stroke-dasharray:none;stroke-dashoffset:0;stroke-opacity:1"
       id="rect4009-7"
       width="97.831429"
       height="150.20021"
       x="83.654694"
       y="301.25067" />
    <rect
       style="opacity:1;fill:#ffe680;fill-opacity:1;fill-rule:nonzero;stroke:#000000;stroke-width:0.18656006;stroke-linejoin:miter;stroke-miterlimit:4;stroke-dasharray:none;stroke-dashoffset:0;stroke-opacity:1"
       id="rect4009"
       width="97.830811"
       height="151.19958"
       x="-19.465731"
       y="301.25098" />
    <text
       xml:space="preserve"
       style="font-style:normal;font-variant:normal;font-weight:normal;font-stretch:normal;font-size:18.33118439px;line-height:100%;font-family:aria;-inkscape-font-specification:aria;text-align:center;letter-spacing:0px;word-spacing:0px;writing-mode:lr-tb;text-anchor:middle;fill:#000000;fill-opacity:1;stroke:none;stroke-width:1px;stroke-linecap:butt;stroke-linejoin:miter;stroke-opacity:1"
       x="184.52658"
       y="91.894348"
       id="text3566"
       sodipodi:linespacing="100%"><tspan
         sodipodi:role="line"
         id="tspan3568"
         x="184.52658"
         y="91.894348"
         style="font-size:25px;line-height:100%">Fermiones</tspan><tspan
         sodipodi:role="line"
         x="184.52658"
         y="116.89435"
         style="font-size:25px;line-height:100%"
         id="tspan6577">(constituyentes materia)</tspan></text>
    <text
       xml:space="preserve"
       style="font-style:normal;font-variant:normal;font-weight:normal;font-stretch:normal;font-size:9.77663136px;line-height:100%;font-family:aria;-inkscape-font-specification:aria;text-align:center;letter-spacing:0px;word-spacing:0px;writing-mode:lr-tb;text-anchor:middle;fill:#000000;fill-opacity:1;stroke:none;stroke-width:1px;stroke-linecap:butt;stroke-linejoin:miter;stroke-opacity:1"
       x="186.81154"
       y="658.3056"
       id="text3566-7"
       sodipodi:linespacing="100%"><tspan
         sodipodi:role="line"
         id="tspan3568-5"
         x="186.81154"
         y="658.3056"
         style="font-size:28.51517487px;line-height:100%">Partículas compuestas</tspan></text>
    <text
       xml:space="preserve"
       style="font-style:normal;font-variant:normal;font-weight:normal;font-stretch:normal;font-size:18.33118439px;line-height:100%;font-family:aria;-inkscape-font-specification:aria;text-align:center;letter-spacing:0px;word-spacing:0px;writing-mode:lr-tb;text-anchor:middle;fill:#000000;fill-opacity:1;stroke:none;stroke-width:1px;stroke-linecap:butt;stroke-linejoin:miter;stroke-opacity:1"
       x="337.31302"
       y="176.89307"
       id="text3566-3"
       sodipodi:linespacing="100%"><tspan
         sodipodi:role="line"
         id="tspan3568-56"
         x="337.31302"
         y="176.89307"
         style="font-size:18.33118439px;line-height:100%">Leptones</tspan></text>
    <text
       xml:space="preserve"
       style="font-style:normal;font-variant:normal;font-weight:normal;font-stretch:normal;font-size:18.33118439px;line-height:100%;font-family:aria;-inkscape-font-specification:aria;text-align:center;letter-spacing:0px;word-spacing:0px;writing-mode:lr-tb;text-anchor:middle;fill:#000000;fill-opacity:1;stroke:none;stroke-width:1px;stroke-linecap:butt;stroke-linejoin:miter;stroke-opacity:1"
       x="126.95757"
       y="178.91002"
       id="text3566-3-2"
       sodipodi:linespacing="100%"><tspan
         sodipodi:role="line"
         id="tspan3568-56-9"
         x="126.95757"
         y="178.91002"
         style="font-size:18.33118439px;line-height:100%">Quarks</tspan></text>
    <text
       xml:space="preserve"
       style="font-style:normal;font-variant:normal;font-weight:normal;font-stretch:normal;font-size:9.77663136px;line-height:1000%;font-family:aria;-inkscape-font-specification:aria;text-align:center;letter-spacing:0px;word-spacing:0px;writing-mode:lr-tb;text-anchor:middle;fill:#000000;fill-opacity:1;stroke:none;stroke-width:1px;stroke-linecap:butt;stroke-linejoin:miter;stroke-opacity:1"
       x="820.448"
       y="83.565125"
       id="text3566-70"
       sodipodi:linespacing="1000%"><tspan
         sodipodi:role="line"
         id="tspan3568-9"
         x="820.448"
         y="83.565125"
         style="font-size:25px">Bosones</tspan></text>
    <text
       xml:space="preserve"
       style="font-style:normal;font-variant:normal;font-weight:normal;font-stretch:normal;font-size:9.77663136px;line-height:1000%;font-family:aria;-inkscape-font-specification:aria;text-align:center;letter-spacing:0px;word-spacing:0px;writing-mode:lr-tb;text-anchor:middle;fill:#000000;fill-opacity:1;stroke:none;stroke-width:1px;stroke-linecap:butt;stroke-linejoin:miter;stroke-opacity:1"
       x="871.12305"
       y="188.20403"
       id="text3566-3-2-3"
       sodipodi:linespacing="1000%"><tspan
         sodipodi:role="line"
         id="tspan3568-56-9-6"
         x="871.12305"
         y="188.20403"
         style="font-size:20.36798096px">Gluones</tspan></text>
    <text
       xml:space="preserve"
       style="font-style:normal;font-variant:normal;font-weight:normal;font-stretch:normal;font-size:9.77663136px;line-height:1000%;font-family:aria;-inkscape-font-specification:aria;text-align:center;letter-spacing:0px;word-spacing:0px;writing-mode:lr-tb;text-anchor:middle;fill:#000000;fill-opacity:1;stroke:none;stroke-width:1px;stroke-linecap:butt;stroke-linejoin:miter;stroke-opacity:1"
       x="706.58307"
       y="178.32945"
       id="text3566-3-2-0"
       sodipodi:linespacing="100%"><tspan
         sodipodi:role="line"
         id="tspan3568-56-9-62"
         x="709.82526"
         y="178.32945"
         style="font-size:20.36798096px;line-height:100%">Bosones </tspan><tspan
         sodipodi:role="line"
         x="706.58307"
         y="382.00928"
         style="font-size:20.36798096px;line-height:100%"
         id="tspan6125">W y Z</tspan></text>
    <text
       xml:space="preserve"
       style="font-style:normal;font-variant:normal;font-weight:normal;font-stretch:normal;font-size:9.77663136px;line-height:1000%;font-family:aria;-inkscape-font-specification:aria;text-align:center;letter-spacing:0px;word-spacing:0px;writing-mode:lr-tb;text-anchor:middle;fill:#000000;fill-opacity:1;stroke:none;stroke-width:1px;stroke-linecap:butt;stroke-linejoin:miter;stroke-opacity:1"
       x="516.00409"
       y="185.39201"
       id="text3566-3-2-3-6"
       sodipodi:linespacing="1000%"><tspan
         sodipodi:role="line"
         id="tspan3568-56-9-6-1"
         x="516.00409"
         y="185.39201"
         style="font-size:20.36798096px">Fotones</tspan></text>
    <text
       xml:space="preserve"
       style="font-style:normal;font-variant:normal;font-weight:normal;font-stretch:normal;font-size:9.77663136px;line-height:1000%;font-family:aria;-inkscape-font-specification:aria;text-align:center;letter-spacing:0px;word-spacing:0px;writing-mode:lr-tb;text-anchor:middle;fill:#999999;fill-opacity:1;stroke:none;stroke-width:1px;stroke-linecap:butt;stroke-linejoin:miter;stroke-opacity:1;"
       x="1142.7423"
       y="187.96138"
       id="text3566-3-2-8"
       sodipodi:linespacing="1000%"><tspan
         sodipodi:role="line"
         id="tspan3568-56-9-7"
         x="1142.7423"
         y="187.96138"
         style="font-size:20.36798096px;-inkscape-font-specification:'aria Italic';font-family:aria;font-weight:normal;font-style:italic;font-stretch:normal;font-variant:normal;fill:#999999;">Gravitón</tspan></text>
    <text
       xml:space="preserve"
       style="font-style:normal;font-variant:normal;font-weight:normal;font-stretch:normal;font-size:18.33118439px;line-height:100%;font-family:aria;-inkscape-font-specification:aria;text-align:center;letter-spacing:0px;word-spacing:0px;writing-mode:lr-tb;text-anchor:middle;fill:#000000;fill-opacity:1;stroke:none;stroke-width:1px;stroke-linecap:butt;stroke-linejoin:miter;stroke-opacity:1"
       x="128.61659"
       y="323.40921"
       id="text3566-9"
       sodipodi:linespacing="100%"><tspan
         sodipodi:role="line"
         id="tspan3568-2"
         x="128.61659"
         y="323.40921"
         style="font-size:18.33118439px;line-height:100%">Mesones</tspan></text>
    <text
       xml:space="preserve"
       style="font-style:normal;font-variant:normal;font-weight:normal;font-stretch:normal;font-size:15.10922813px;line-height:100%;font-family:aria;-inkscape-font-specification:aria;text-align:center;letter-spacing:0px;word-spacing:0px;writing-mode:lr-tb;text-anchor:middle;fill:#000000;fill-opacity:1;stroke:none;stroke-width:1px;stroke-linecap:butt;stroke-linejoin:miter;stroke-opacity:1"
       x="132.04781"
       y="418.37485"
       id="text3566-9-0"
       sodipodi:linespacing="100%"><tspan
         sodipodi:role="line"
         x="132.04781"
         y="418.37485"
         style="font-style:normal;font-variant:normal;font-weight:normal;font-stretch:normal;font-size:15.10922813px;line-height:100%;font-family:'Times New Roman';-inkscape-font-specification:'Times New Roman, '"
         id="tspan3805">quark/antiquark</tspan><tspan
         sodipodi:role="line"
         x="132.04781"
         y="433.48407"
         style="font-style:normal;font-variant:normal;font-weight:normal;font-stretch:normal;font-size:15.10922813px;line-height:100%;font-family:'Times New Roman';-inkscape-font-specification:'Times New Roman, '"
         id="tspan3913">π, Κ, η, ρ, φ</tspan><tspan
         sodipodi:role="line"
         x="132.04781"
         y="448.59329"
         style="font-style:normal;font-variant:normal;font-weight:normal;font-stretch:normal;font-size:15.10922813px;line-height:100%;font-family:'Times New Roman';-inkscape-font-specification:'Times New Roman, '"
         id="tspan3807">D, J/Ψ, B, Υ</tspan></text>
    <text
       xml:space="preserve"
       style="font-style:normal;font-variant:normal;font-weight:normal;font-stretch:normal;font-size:18.33118439px;line-height:100%;font-family:aria;-inkscape-font-specification:aria;text-align:center;letter-spacing:0px;word-spacing:0px;writing-mode:lr-tb;text-anchor:middle;fill:#000000;fill-opacity:1;stroke:none;stroke-width:1px;stroke-linecap:butt;stroke-linejoin:miter;stroke-opacity:1"
       x="239.22655"
       y="323.69116"
       id="text3566-9-3"
       sodipodi:linespacing="100%"><tspan
         sodipodi:role="line"
         id="tspan3568-2-7"
         x="239.22655"
         y="323.69116"
         style="font-size:18.33118439px;line-height:100%">Bariones</tspan></text>
    <text
       xml:space="preserve"
       style="font-style:normal;font-variant:normal;font-weight:normal;font-stretch:normal;font-size:18.33118439px;line-height:100%;font-family:aria;-inkscape-font-specification:aria;text-align:center;letter-spacing:0px;word-spacing:0px;writing-mode:lr-tb;text-anchor:middle;fill:#000000;fill-opacity:1;stroke:none;stroke-width:1px;stroke-linecap:butt;stroke-linejoin:miter;stroke-opacity:1"
       x="129.44283"
       y="262.76367"
       id="text3566-9-3-5"
       sodipodi:linespacing="100%"><tspan
         sodipodi:role="line"
         id="tspan3568-2-7-9"
         x="129.44283"
         y="262.76367"
         style="font-size:18.33118439px;line-height:100%">Hadrones</tspan></text>
    <text
       xml:space="preserve"
       style="font-style:normal;font-variant:normal;font-weight:normal;font-stretch:normal;font-size:18.33118439px;line-height:100%;font-family:aria;-inkscape-font-specification:aria;text-align:center;letter-spacing:0px;word-spacing:0px;writing-mode:lr-tb;text-anchor:middle;fill:#000000;fill-opacity:1;stroke:none;stroke-width:1px;stroke-linecap:butt;stroke-linejoin:miter;stroke-opacity:1"
       x="28.376318"
       y="324.05814"
       id="text3566-9-3-2"
       sodipodi:linespacing="100%"><tspan
         sodipodi:role="line"
         id="tspan3568-2-7-2"
         x="28.376316"
         y="324.05814"
         style="font-size:18.33118439px;line-height:100%">Exóticos</tspan></text>
    <text
       xml:space="preserve"
       style="font-style:normal;font-variant:normal;font-weight:normal;font-stretch:normal;font-size:18.33118439px;line-height:100%;font-family:aria;-inkscape-font-specification:aria;text-align:center;letter-spacing:0px;word-spacing:0px;writing-mode:lr-tb;text-anchor:middle;fill:#000000;fill-opacity:1;stroke:none;stroke-width:1px;stroke-linecap:butt;stroke-linejoin:miter;stroke-opacity:1"
       x="291.38516"
       y="540.9104"
       id="text3566-9-3-8"
       sodipodi:linespacing="100%"><tspan
         sodipodi:role="line"
         id="tspan3568-2-7-97"
         x="291.38516"
         y="540.9104"
         style="font-size:18.33118439px;line-height:100%">Átomos</tspan></text>
    <text
       xml:space="preserve"
       style="font-style:normal;font-variant:normal;font-weight:normal;font-stretch:normal;font-size:18.33118439px;line-height:100%;font-family:aria;-inkscape-font-specification:aria;text-align:center;letter-spacing:0px;word-spacing:0px;writing-mode:lr-tb;text-anchor:middle;fill:#000000;fill-opacity:1;stroke:none;stroke-width:1px;stroke-linecap:butt;stroke-linejoin:miter;stroke-opacity:1"
       x="239.83528"
       y="486.60608"
       id="text3566-9-3-8-3"
       sodipodi:linespacing="100%"><tspan
         sodipodi:role="line"
         id="tspan3568-2-7-97-6"
         x="239.83528"
         y="486.60608"
         style="font-size:18.33118439px;line-height:100%">Núcleos</tspan></text>
    <text
       xml:space="preserve"
       style="font-style:normal;font-variant:normal;font-weight:normal;font-stretch:normal;font-size:18.33118439px;line-height:100%;font-family:aria;-inkscape-font-specification:aria;text-align:center;letter-spacing:0px;word-spacing:0px;writing-mode:lr-tb;text-anchor:middle;fill:#000000;fill-opacity:1;stroke:none;stroke-width:1px;stroke-linecap:butt;stroke-linejoin:miter;stroke-opacity:1"
       x="291.9949"
       y="579.45685"
       id="text3566-9-3-8-1"
       sodipodi:linespacing="100%"><tspan
         sodipodi:role="line"
         id="tspan3568-2-7-97-2"
         x="291.9949"
         y="579.45685"
         style="font-size:18.33118439px;line-height:100%">Moléculas</tspan><tspan
         sodipodi:role="line"
         x="294.3826"
         y="595.13177"
         style="font-size:15px;line-height:100%"
         id="tspan3989">Materia </tspan><tspan
         sodipodi:role="line"
         x="291.9949"
         y="610.13177"
         style="font-size:15px;line-height:100%"
         id="tspan5567">condensada</tspan><tspan
         sodipodi:role="line"
         x="291.9949"
         y="625.13177"
         style="font-size:18.33118439px;line-height:100%"
         id="tspan3987" /></text>
    <text
       xml:space="preserve"
       style="font-style:normal;font-variant:normal;font-weight:normal;font-stretch:normal;font-size:9.77663136px;line-height:1000%;font-family:aria;-inkscape-font-specification:aria;text-align:center;letter-spacing:0px;word-spacing:0px;writing-mode:lr-tb;text-anchor:middle;fill:#000000;fill-opacity:1;stroke:none;stroke-width:1px;stroke-linecap:butt;stroke-linejoin:miter;stroke-opacity:1"
       x="568.88361"
       y="40.665833"
       id="text3566-7-9"
       sodipodi:linespacing="1000%"><tspan
         sodipodi:role="line"
         id="tspan3568-5-3"
         x="568.88361"
         y="40.665833"
         style="font-size:30px">Partículas elementales</tspan></text>
    <text
       xml:space="preserve"
       style="font-style:normal;font-variant:normal;font-weight:normal;font-stretch:normal;font-size:15.10922813px;line-height:100%;font-family:aria;-inkscape-font-specification:aria;text-align:center;letter-spacing:0px;word-spacing:0px;writing-mode:lr-tb;text-anchor:middle;fill:#000000;fill-opacity:1;stroke:none;stroke-width:1px;stroke-linecap:butt;stroke-linejoin:miter;stroke-opacity:1"
       x="27.730658"
       y="417.61557"
       id="text3566-9-0-5"
       sodipodi:linespacing="100%"><tspan
         sodipodi:role="line"
         x="27.730658"
         y="417.61557"
         style="font-style:normal;font-variant:normal;font-weight:normal;font-stretch:normal;font-size:15.10922813px;line-height:100%;font-family:'Times New Roman';-inkscape-font-specification:'Times New Roman, '"
         id="tspan3805-7">tetraquark</tspan><tspan
         sodipodi:role="line"
         x="27.730656"
         y="432.72479"
         style="font-style:normal;font-variant:normal;font-weight:normal;font-stretch:normal;font-size:15.10922813px;line-height:100%;font-family:'Times New Roman';-inkscape-font-specification:'Times New Roman, '"
         id="tspan4865">pentaquark</tspan><tspan
         sodipodi:role="line"
         x="27.730658"
         y="447.83401"
         style="font-style:normal;font-variant:normal;font-weight:normal;font-stretch:normal;font-size:15.10922813px;line-height:100%;font-family:'Times New Roman';-inkscape-font-specification:'Times New Roman, '"
         id="tspan5804">...</tspan><tspan
         sodipodi:role="line"
         x="27.730658"
         y="462.94327"
         style="font-style:normal;font-variant:normal;font-weight:normal;font-stretch:normal;font-size:15.10922813px;line-height:100%;font-family:'Times New Roman';-inkscape-font-specification:'Times New Roman, '"
         id="tspan3807-1" /></text>
    <text
       xml:space="preserve"
       style="font-style:normal;font-variant:normal;font-weight:normal;font-stretch:normal;font-size:15.10922813px;line-height:100%;font-family:aria;-inkscape-font-specification:aria;text-align:center;letter-spacing:0px;word-spacing:0px;writing-mode:lr-tb;text-anchor:middle;fill:#000000;fill-opacity:1;stroke:none;stroke-width:1px;stroke-linecap:butt;stroke-linejoin:miter;stroke-opacity:1"
       x="236.9894"
       y="419.18484"
       id="text3566-9-0-7"
       sodipodi:linespacing="100%"><tspan
         sodipodi:role="line"
         x="236.9894"
         y="419.18484"
         style="font-style:normal;font-variant:normal;font-weight:normal;font-stretch:normal;font-size:15.10922813px;line-height:100%;font-family:'Times New Roman';-inkscape-font-specification:'Times New Roman, '"
         id="tspan3913-3">tres quarks</tspan><tspan
         sodipodi:role="line"
         x="236.9894"
         y="434.29407"
         style="font-style:normal;font-variant:normal;font-weight:normal;font-stretch:normal;font-size:15.10922813px;line-height:100%;font-family:'Times New Roman';-inkscape-font-specification:'Times New Roman, '"
         id="tspan5081">protón, neutrón</tspan><tspan
         sodipodi:role="line"
         x="236.9894"
         y="449.40329"
         style="font-style:normal;font-variant:normal;font-weight:normal;font-stretch:normal;font-size:15.10922813px;line-height:100%;font-family:'Times New Roman';-inkscape-font-specification:'Times New Roman, '"
         id="tspan3807-8">Δ, Λ, Σ, Ξ, Ω</tspan></text>
    <path
       style="opacity:1;fill:#ffffff;fill-opacity:1;fill-rule:nonzero;stroke:#000000;stroke-width:1.35166442;stroke-linejoin:miter;stroke-miterlimit:4;stroke-dasharray:none;stroke-dashoffset:0;stroke-opacity:1"
       id="path5089"
       sodipodi:type="arc"
       sodipodi:cx="239.06999"
       sodipodi:cy="367.25504"
       sodipodi:rx="30.074535"
       sodipodi:ry="30.074535"
       sodipodi:start="1.5671798"
       sodipodi:end="1.5499944"
       sodipodi:open="true"
       d="m 239.17876,397.32937 a 30.074535,30.074535 0 0 1 -30.18236,-29.83636 30.074535,30.074535 0 0 1 29.70641,-30.31027 30.074535,30.074535 0 0 1 30.43762,29.57592 30.074535,30.074535 0 0 1 -29.44487,30.5644" />
    <path
       style="opacity:1;fill:#ff0000;fill-opacity:1;fill-rule:nonzero;stroke:none;stroke-width:1.352;stroke-linejoin:miter;stroke-miterlimit:4;stroke-dasharray:none;stroke-dashoffset:0;stroke-opacity:1"
       id="path5089-3"
       sodipodi:type="arc"
       sodipodi:cx="239.56938"
       sodipodi:cy="352.25458"
       sodipodi:rx="10.824535"
       sodipodi:ry="10.824535"
       sodipodi:start="1.5671798"
       sodipodi:end="1.5499944"
       sodipodi:open="true"
       d="m 239.60853,363.07904 a 10.824535,10.824535 0 0 1 -10.86334,-10.73881 10.824535,10.824535 0 0 1 10.69204,-10.90938 10.824535,10.824535 0 0 1 10.95521,10.64507 10.824535,10.824535 0 0 1 -10.5979,11.00085" />
    <text
       xml:space="preserve"
       style="font-style:normal;font-variant:normal;font-weight:normal;font-stretch:normal;font-size:12px;line-height:1000%;font-family:aria;-inkscape-font-specification:aria;text-align:center;letter-spacing:0px;word-spacing:0px;writing-mode:lr-tb;text-anchor:middle;fill:#000000;fill-opacity:1;stroke:none;stroke-width:1px;stroke-linecap:butt;stroke-linejoin:miter;stroke-opacity:1"
       x="239.31941"
       y="355.00458"
       id="text5121"
       sodipodi:linespacing="1000%"><tspan
         sodipodi:role="line"
         id="tspan5123"
         x="239.31941"
         y="355.00458">q</tspan></text>
    <path
       style="opacity:1;fill:#23da20;fill-opacity:1;fill-rule:nonzero;stroke:none;stroke-width:1.352;stroke-linejoin:miter;stroke-miterlimit:4;stroke-dasharray:none;stroke-dashoffset:0;stroke-opacity:1"
       id="path5089-3-1"
       sodipodi:type="arc"
       sodipodi:cx="226.81941"
       sodipodi:cy="376.00455"
       sodipodi:rx="10.824535"
       sodipodi:ry="10.824535"
       sodipodi:start="1.5671798"
       sodipodi:end="1.5499944"
       sodipodi:open="true"
       d="m 226.85856,386.82901 a 10.824535,10.824535 0 0 1 -10.86334,-10.73881 10.824535,10.824535 0 0 1 10.69204,-10.90938 10.824535,10.824535 0 0 1 10.95521,10.64507 10.824535,10.824535 0 0 1 -10.5979,11.00085" />
    <text
       xml:space="preserve"
       style="font-style:normal;font-variant:normal;font-weight:normal;font-stretch:normal;font-size:12px;line-height:1000%;font-family:aria;-inkscape-font-specification:aria;text-align:center;letter-spacing:0px;word-spacing:0px;writing-mode:lr-tb;text-anchor:middle;fill:#000000;fill-opacity:1;stroke:none;stroke-width:1px;stroke-linecap:butt;stroke-linejoin:miter;stroke-opacity:1"
       x="226.56944"
       y="378.75455"
       id="text5121-8"
       sodipodi:linespacing="1000%"><tspan
         sodipodi:role="line"
         id="tspan5123-9"
         x="226.56944"
         y="378.75455">q</tspan></text>
    <path
       style="opacity:1;fill:#0000ff;fill-opacity:1;fill-rule:nonzero;stroke:none;stroke-width:1.352;stroke-linejoin:miter;stroke-miterlimit:4;stroke-dasharray:none;stroke-dashoffset:0;stroke-opacity:1"
       id="path5089-3-6"
       sodipodi:type="arc"
       sodipodi:cx="251.81941"
       sodipodi:cy="375.00455"
       sodipodi:rx="10.824535"
       sodipodi:ry="10.824535"
       sodipodi:start="1.5671798"
       sodipodi:end="1.5499944"
       sodipodi:open="true"
       d="m 251.85856,385.82901 a 10.824535,10.824535 0 0 1 -10.86334,-10.73881 10.824535,10.824535 0 0 1 10.69204,-10.90938 10.824535,10.824535 0 0 1 10.95521,10.64507 10.824535,10.824535 0 0 1 -10.5979,11.00085" />
    <text
       xml:space="preserve"
       style="font-style:normal;font-variant:normal;font-weight:normal;font-stretch:normal;font-size:12px;line-height:1000%;font-family:aria;-inkscape-font-specification:aria;text-align:center;letter-spacing:0px;word-spacing:0px;writing-mode:lr-tb;text-anchor:middle;fill:#000000;fill-opacity:1;stroke:none;stroke-width:1px;stroke-linecap:butt;stroke-linejoin:miter;stroke-opacity:1"
       x="251.56944"
       y="377.75455"
       id="text5121-4"
       sodipodi:linespacing="1000%"><tspan
         sodipodi:role="line"
         id="tspan5123-3"
         x="251.56944"
         y="377.75455">q</tspan></text>
    <path
       style="opacity:1;fill:#ffffff;fill-opacity:1;fill-rule:nonzero;stroke:#000000;stroke-width:1.35166442;stroke-linejoin:miter;stroke-miterlimit:4;stroke-dasharray:none;stroke-dashoffset:0;stroke-opacity:1"
       id="path5089-33"
       sodipodi:type="arc"
       sodipodi:cx="133.81938"
       sodipodi:cy="364.50458"
       sodipodi:rx="30.074535"
       sodipodi:ry="30.074535"
       sodipodi:start="1.5671798"
       sodipodi:end="1.5499944"
       sodipodi:open="true"
       d="m 133.92815,394.57892 a 30.074535,30.074535 0 0 1 -30.18236,-29.83637 30.074535,30.074535 0 0 1 29.70641,-30.31027 30.074535,30.074535 0 0 1 30.43762,29.57592 30.074535,30.074535 0 0 1 -29.44488,30.56441" />
    <path
       style="opacity:1;fill:none;fill-opacity:1;fill-rule:nonzero;stroke:#ff0000;stroke-width:1;stroke-linejoin:miter;stroke-miterlimit:4;stroke-dasharray:none;stroke-dashoffset:0;stroke-opacity:1"
       id="path5089-3-8"
       sodipodi:type="arc"
       sodipodi:cx="145.31877"
       sodipodi:cy="358.00412"
       sodipodi:rx="10.824535"
       sodipodi:ry="10.824535"
       sodipodi:start="1.5671798"
       sodipodi:end="1.5499944"
       sodipodi:open="true"
       d="m 145.35792,368.82858 a 10.824535,10.824535 0 0 1 -10.86335,-10.73881 10.824535,10.824535 0 0 1 10.69205,-10.90938 10.824535,10.824535 0 0 1 10.95521,10.64507 10.824535,10.824535 0 0 1 -10.5979,11.00085" />
    <text
       xml:space="preserve"
       style="font-style:normal;font-variant:normal;font-weight:normal;font-stretch:normal;font-size:12px;line-height:100%;font-family:aria;-inkscape-font-specification:aria;text-align:center;letter-spacing:0px;word-spacing:0px;writing-mode:lr-tb;text-anchor:middle;fill:#000000;fill-opacity:1;stroke:none;stroke-width:1px;stroke-linecap:butt;stroke-linejoin:miter;stroke-opacity:1"
       x="145.0688"
       y="349.25412"
       id="text5121-6"
       sodipodi:linespacing="100%"><tspan
         sodipodi:role="line"
         id="tspan5123-0"
         x="145.0688"
         y="349.25412">_</tspan><tspan
         sodipodi:role="line"
         x="145.0688"
         y="361.25412"
         id="tspan5198"
         style="line-height:100%;letter-spacing:0px">q</tspan></text>
    <path
       style="opacity:1;fill:#ff0000;fill-opacity:1;fill-rule:nonzero;stroke:none;stroke-width:1.352;stroke-linejoin:miter;stroke-miterlimit:4;stroke-dasharray:none;stroke-dashoffset:0;stroke-opacity:1"
       id="path5089-3-1-4"
       sodipodi:type="arc"
       sodipodi:cx="121.5688"
       sodipodi:cy="373.25409"
       sodipodi:rx="10.824535"
       sodipodi:ry="10.824535"
       sodipodi:start="1.5671798"
       sodipodi:end="1.5499944"
       sodipodi:open="true"
       d="m 121.60795,384.07855 a 10.824535,10.824535 0 0 1 -10.86334,-10.73881 10.824535,10.824535 0 0 1 10.69204,-10.90938 10.824535,10.824535 0 0 1 10.95521,10.64507 10.824535,10.824535 0 0 1 -10.5979,11.00085" />
    <text
       xml:space="preserve"
       style="font-style:normal;font-variant:normal;font-weight:normal;font-stretch:normal;font-size:12px;line-height:1000%;font-family:aria;-inkscape-font-specification:aria;text-align:center;letter-spacing:0px;word-spacing:0px;writing-mode:lr-tb;text-anchor:middle;fill:#000000;fill-opacity:1;stroke:none;stroke-width:1px;stroke-linecap:butt;stroke-linejoin:miter;stroke-opacity:1"
       x="121.31883"
       y="376.00409"
       id="text5121-8-8"
       sodipodi:linespacing="1000%"><tspan
         sodipodi:role="line"
         id="tspan5123-9-8"
         x="121.31883"
         y="376.00409">q</tspan></text>
    <path
       style="opacity:1;fill:#ffffff;fill-opacity:1;fill-rule:nonzero;stroke:#000000;stroke-width:1.35166442;stroke-linejoin:miter;stroke-miterlimit:4;stroke-dasharray:none;stroke-dashoffset:0;stroke-opacity:1"
       id="path5089-33-4"
       sodipodi:type="arc"
       sodipodi:cx="26.819387"
       sodipodi:cy="369.00458"
       sodipodi:rx="30.074535"
       sodipodi:ry="30.074535"
       sodipodi:start="1.5671798"
       sodipodi:end="1.5499944"
       sodipodi:open="true"
       d="M 26.928153,399.07892 A 30.074535,30.074535 0 0 1 -3.2542064,369.24255 30.074535,30.074535 0 0 1 26.45221,338.93228 30.074535,30.074535 0 0 1 56.889826,368.5082 30.074535,30.074535 0 0 1 27.444951,399.07261" />
    <path
       style="opacity:1;fill:none;fill-opacity:1;fill-rule:nonzero;stroke:#ff0000;stroke-width:1;stroke-linejoin:miter;stroke-miterlimit:4;stroke-dasharray:none;stroke-dashoffset:0;stroke-opacity:1"
       id="path5089-3-8-9"
       sodipodi:type="arc"
       sodipodi:cx="15.318784"
       sodipodi:cy="357.00412"
       sodipodi:rx="10.824535"
       sodipodi:ry="10.824535"
       sodipodi:start="1.5671798"
       sodipodi:end="1.5499944"
       sodipodi:open="true"
       d="M 15.357931,367.82858 A 10.824535,10.824535 0 0 1 4.4945873,357.08977 10.824535,10.824535 0 0 1 15.186628,346.18039 10.824535,10.824535 0 0 1 26.141845,356.82546 10.824535,10.824535 0 0 1 15.543939,367.82631" />
    <text
       xml:space="preserve"
       style="font-style:normal;font-variant:normal;font-weight:normal;font-stretch:normal;font-size:12px;line-height:100%;font-family:aria;-inkscape-font-specification:aria;text-align:center;letter-spacing:0px;word-spacing:0px;writing-mode:lr-tb;text-anchor:middle;fill:#000000;fill-opacity:1;stroke:none;stroke-width:1px;stroke-linecap:butt;stroke-linejoin:miter;stroke-opacity:1"
       x="15.068807"
       y="348.25412"
       id="text5121-6-9"
       sodipodi:linespacing="100%"><tspan
         sodipodi:role="line"
         id="tspan5123-0-3"
         x="15.068807"
         y="348.25412">_</tspan><tspan
         sodipodi:role="line"
         x="15.068807"
         y="360.25412"
         id="tspan5198-6"
         style="line-height:100%;letter-spacing:0px">q</tspan></text>
    <path
       style="opacity:1;fill:#ff0000;fill-opacity:1;fill-rule:nonzero;stroke:none;stroke-width:1.352;stroke-linejoin:miter;stroke-miterlimit:4;stroke-dasharray:none;stroke-dashoffset:0;stroke-opacity:1"
       id="path5089-3-1-4-0"
       sodipodi:type="arc"
       sodipodi:cx="15.068807"
       sodipodi:cy="380.75409"
       sodipodi:rx="10.824535"
       sodipodi:ry="10.824535"
       sodipodi:start="1.5671798"
       sodipodi:end="1.5499944"
       sodipodi:open="true"
       d="M 15.107954,391.57855 A 10.824535,10.824535 0 0 1 4.2446102,380.83974 10.824535,10.824535 0 0 1 14.936651,369.93036 10.824535,10.824535 0 0 1 25.891868,380.57543 10.824535,10.824535 0 0 1 15.293962,391.57628" />
    <text
       xml:space="preserve"
       style="font-style:normal;font-variant:normal;font-weight:normal;font-stretch:normal;font-size:12px;line-height:1000%;font-family:aria;-inkscape-font-specification:aria;text-align:center;letter-spacing:0px;word-spacing:0px;writing-mode:lr-tb;text-anchor:middle;fill:#000000;fill-opacity:1;stroke:none;stroke-width:1px;stroke-linecap:butt;stroke-linejoin:miter;stroke-opacity:1"
       x="14.818837"
       y="383.50409"
       id="text5121-8-8-5"
       sodipodi:linespacing="1000%"><tspan
         sodipodi:role="line"
         id="tspan5123-9-8-0"
         x="14.818837"
         y="383.50409">q</tspan></text>
    <path
       style="opacity:1;fill:none;fill-opacity:1;fill-rule:nonzero;stroke:#00ff00;stroke-width:1;stroke-linejoin:miter;stroke-miterlimit:4;stroke-dasharray:none;stroke-dashoffset:0;stroke-opacity:1"
       id="path5089-3-8-9-2"
       sodipodi:type="arc"
       sodipodi:cx="39.319416"
       sodipodi:cy="357.37958"
       sodipodi:rx="10.824535"
       sodipodi:ry="10.824535"
       sodipodi:start="1.5671798"
       sodipodi:end="1.5499944"
       sodipodi:open="true"
       d="M 39.358563,368.20404 A 10.824535,10.824535 0 0 1 28.49522,357.46523 10.824535,10.824535 0 0 1 39.18726,346.55585 10.824535,10.824535 0 0 1 50.142477,357.20092 10.824535,10.824535 0 0 1 39.544571,368.20177" />
    <text
       xml:space="preserve"
       style="font-style:normal;font-variant:normal;font-weight:normal;font-stretch:normal;font-size:12px;line-height:100%;font-family:aria;-inkscape-font-specification:aria;text-align:center;letter-spacing:0px;word-spacing:0px;writing-mode:lr-tb;text-anchor:middle;fill:#000000;fill-opacity:1;stroke:none;stroke-width:1px;stroke-linecap:butt;stroke-linejoin:miter;stroke-opacity:1"
       x="39.069431"
       y="348.62958"
       id="text5121-6-9-9"
       sodipodi:linespacing="100%"><tspan
         sodipodi:role="line"
         id="tspan5123-0-3-4"
         x="39.069431"
         y="348.62958">_</tspan><tspan
         sodipodi:role="line"
         x="39.069431"
         y="360.62958"
         id="tspan5198-6-3"
         style="line-height:100%;letter-spacing:0px">q</tspan></text>
    <path
       style="opacity:1;fill:#00ff00;fill-opacity:1;fill-rule:nonzero;stroke:none;stroke-width:1.352;stroke-linejoin:miter;stroke-miterlimit:4;stroke-dasharray:none;stroke-dashoffset:0;stroke-opacity:1"
       id="path5089-3-1-4-0-5"
       sodipodi:type="arc"
       sodipodi:cx="39.069431"
       sodipodi:cy="381.12955"
       sodipodi:rx="10.824535"
       sodipodi:ry="10.824535"
       sodipodi:start="1.5671798"
       sodipodi:end="1.5499944"
       sodipodi:open="true"
       d="M 39.108578,391.95401 A 10.824535,10.824535 0 0 1 28.245235,381.2152 10.824535,10.824535 0 0 1 38.937275,370.30582 10.824535,10.824535 0 0 1 49.892492,380.95089 10.824535,10.824535 0 0 1 39.294586,391.95174" />
    <text
       xml:space="preserve"
       style="font-style:normal;font-variant:normal;font-weight:normal;font-stretch:normal;font-size:12px;line-height:1000%;font-family:aria;-inkscape-font-specification:aria;text-align:center;letter-spacing:0px;word-spacing:0px;writing-mode:lr-tb;text-anchor:middle;fill:#000000;fill-opacity:1;stroke:none;stroke-width:1px;stroke-linecap:butt;stroke-linejoin:miter;stroke-opacity:1"
       x="38.819462"
       y="383.87955"
       id="text5121-8-8-5-1"
       sodipodi:linespacing="1000%"><tspan
         sodipodi:role="line"
         id="tspan5123-9-8-0-7"
         x="38.819462"
         y="383.87955">q</tspan></text>
    <path
       style="fill:none;fill-rule:evenodd;stroke:#000000;stroke-width:1px;stroke-linecap:butt;stroke-linejoin:miter;stroke-opacity:1"
       d="m 127.31942,269.25455 108,31.25"
       id="path5308"
       inkscape:connector-curvature="0"
       sodipodi:nodetypes="cc" />
    <text
       xml:space="preserve"
       style="font-style:normal;font-variant:normal;font-weight:normal;font-stretch:normal;font-size:15.10922813px;line-height:100%;font-family:aria;-inkscape-font-specification:aria;text-align:center;letter-spacing:0px;word-spacing:0px;writing-mode:lr-tb;text-anchor:middle;fill:#000000;fill-opacity:1;stroke:none;stroke-width:1px;stroke-linecap:butt;stroke-linejoin:miter;stroke-opacity:1"
       x="127.00916"
       y="201.66193"
       id="text3566-9-0-2"
       sodipodi:linespacing="100%"><tspan
         sodipodi:role="line"
         x="127.00916"
         y="201.66193"
         style="font-style:normal;font-variant:normal;font-weight:normal;font-stretch:normal;font-size:15.10922813px;line-height:100%;font-family:'Times New Roman';-inkscape-font-specification:'Times New Roman, '"
         id="tspan3807-12">u, c, t, d, s, b</tspan></text>
    <text
       xml:space="preserve"
       style="font-style:normal;font-variant:normal;font-weight:normal;font-stretch:normal;font-size:15.10922813px;line-height:100%;font-family:aria;-inkscape-font-specification:aria;text-align:center;letter-spacing:0px;word-spacing:0px;writing-mode:lr-tb;text-anchor:middle;fill:#000000;fill-opacity:1;stroke:none;stroke-width:1px;stroke-linecap:butt;stroke-linejoin:miter;stroke-opacity:1"
       x="337.06342"
       y="197.09351"
       id="text3566-9-0-2-8"
       sodipodi:linespacing="100%"><tspan
         sodipodi:role="line"
         x="337.06342"
         y="197.09351"
         style="font-style:normal;font-variant:normal;font-weight:normal;font-stretch:normal;font-size:15.10922813px;line-height:100%;font-family:'Times New Roman';-inkscape-font-specification:'Times New Roman, '"
         id="tspan3807-12-9">e, μ, τ, υ<tspan
   style="font-size:64.99999762%;baseline-shift:sub"
   id="tspan5441">e</tspan>, υ<tspan
   style="font-size:64.99999762%;baseline-shift:sub"
   id="tspan5443">μ</tspan>, υ<tspan
   style="font-size:64.99999762%;baseline-shift:sub"
   id="tspan5445">τ</tspan></tspan></text>
    <path
       style="fill:none;fill-rule:evenodd;stroke:#000000;stroke-width:1px;stroke-linecap:butt;stroke-linejoin:miter;stroke-opacity:1"
       d="m 26.81942,300.87956 100,-31.25"
       id="path5308-2"
       inkscape:connector-curvature="0"
       sodipodi:nodetypes="cc" />
    <path
       style="fill:none;fill-rule:evenodd;stroke:#000000;stroke-width:1px;stroke-linecap:butt;stroke-linejoin:miter;stroke-opacity:1"
       d="m 127.31942,301.62956 0,-32.75"
       id="path5308-2-8"
       inkscape:connector-curvature="0"
       sodipodi:nodetypes="cc" />
    <path
       style="fill:none;fill-rule:evenodd;stroke:#000000;stroke-width:1px;stroke-linecap:butt;stroke-linejoin:miter;stroke-opacity:1"
       d="m 127.31942,240.87956 0,-34.75"
       id="path5308-2-8-8"
       inkscape:connector-curvature="0"
       sodipodi:nodetypes="cc" />
    <path
       style="fill:none;fill-rule:evenodd;stroke:#000000;stroke-width:1px;stroke-linecap:butt;stroke-linejoin:miter;stroke-opacity:1"
       d="m 237.29503,492.40248 -0.14644,15.19207 97.93428,0.46415 -0.7071,-303.7931"
       id="path5308-2-8-8-8"
       inkscape:connector-curvature="0"
       sodipodi:nodetypes="cccc" />
    <path
       style="fill:#ff9955;fill-rule:evenodd;stroke:#000000;stroke-width:1px;stroke-linecap:butt;stroke-linejoin:miter;stroke-opacity:1"
       d="m 237.31942,463.37956 0,-11.75"
       id="path5308-2-8-8-83"
       inkscape:connector-curvature="0"
       sodipodi:nodetypes="cc" />
    <path
       style="fill:none;fill-rule:evenodd;stroke:#000000;stroke-width:1px;stroke-linecap:butt;stroke-linejoin:miter;stroke-opacity:1"
       d="m 288.45355,519.12011 0,-11.75"
       id="path5308-2-8-8-83-8"
       inkscape:connector-curvature="0"
       sodipodi:nodetypes="cc" />
    <path
       style="fill:none;fill-rule:evenodd;stroke:#000000;stroke-width:1px;stroke-linecap:butt;stroke-linejoin:miter;stroke-opacity:1"
       d="m 288.81942,559.37956 0,-11.75"
       id="path5308-2-8-8-83-8-3"
       inkscape:connector-curvature="0"
       sodipodi:nodetypes="cc" />
    <text
       xml:space="preserve"
       style="font-style:normal;font-variant:normal;font-weight:normal;font-stretch:normal;font-size:9.77663136px;line-height:100%;font-family:aria;-inkscape-font-specification:aria;text-align:center;letter-spacing:0px;word-spacing:0px;writing-mode:lr-tb;text-anchor:middle;fill:#000000;fill-opacity:1;stroke:none;stroke-width:1px;stroke-linecap:butt;stroke-linejoin:miter;stroke-opacity:1"
       x="517.39832"
       y="250.95396"
       id="text3566-3-2-3-7"
       sodipodi:linespacing="100%"><tspan
         sodipodi:role="line"
         id="tspan3568-56-9-6-6"
         x="520.6405"
         y="250.95396"
         style="font-size:20.36798096px;line-height:100%">Interacción </tspan><tspan
         sodipodi:role="line"
         x="517.39832"
         y="271.32196"
         style="font-size:20.36798096px;line-height:100%"
         id="tspan5864">electromagnética</tspan></text>
    <text
       xml:space="preserve"
       style="font-style:normal;font-variant:normal;font-weight:normal;font-stretch:normal;font-size:9.77663136px;line-height:100%;font-family:aria;-inkscape-font-specification:aria;text-align:center;letter-spacing:0px;word-spacing:0px;writing-mode:lr-tb;text-anchor:middle;fill:#000000;fill-opacity:1;stroke:none;stroke-width:1px;stroke-linecap:butt;stroke-linejoin:miter;stroke-opacity:1"
       x="518.53302"
       y="330.10907"
       id="text3566-3-2-3-3-8-7"
       sodipodi:linespacing="100%"><tspan
         sodipodi:role="line"
         x="518.53302"
         y="330.10907"
         style="font-style:normal;font-variant:normal;font-weight:normal;font-stretch:normal;font-size:20.36798096px;line-height:100%;font-family:times;-inkscape-font-specification:times"
         id="tspan5642-3">QED</tspan><tspan
         sodipodi:role="line"
         x="518.53302"
         y="350.47705"
         style="font-style:normal;font-variant:normal;font-weight:normal;font-stretch:normal;font-size:20.36798096px;line-height:100%;font-family:times;-inkscape-font-specification:times"
         id="tspan6077">Electrodinámica</tspan><tspan
         sodipodi:role="line"
         x="518.53302"
         y="370.84503"
         style="font-style:normal;font-variant:normal;font-weight:normal;font-stretch:normal;font-size:20.36798096px;line-height:100%;font-family:times;-inkscape-font-specification:times"
         id="tspan6073">Cuántica</tspan></text>
    <text
       xml:space="preserve"
       style="font-style:normal;font-variant:normal;font-weight:normal;font-stretch:normal;font-size:9.77663136px;line-height:100%;font-family:aria;-inkscape-font-specification:aria;text-align:center;letter-spacing:0px;word-spacing:0px;writing-mode:lr-tb;text-anchor:middle;fill:#000000;fill-opacity:1;stroke:none;stroke-width:1px;stroke-linecap:butt;stroke-linejoin:miter;stroke-opacity:1"
       x="1006.3387"
       y="177.2854"
       id="text3566-3-2-3-6-3"
       sodipodi:linespacing="100%"><tspan
         sodipodi:role="line"
         id="tspan3568-56-9-6-1-3"
         x="1006.3387"
         y="177.2854"
         style="font-size:20.36798096px;line-height:100%">Bosón</tspan><tspan
         sodipodi:role="line"
         x="1006.3387"
         y="197.65338"
         style="font-size:20.36798096px;line-height:100%"
         id="tspan6129">Higgs</tspan></text>
    <text
       xml:space="preserve"
       style="font-style:normal;font-variant:normal;font-weight:normal;font-stretch:normal;font-size:9.77663136px;line-height:100%;font-family:aria;-inkscape-font-specification:aria;text-align:center;letter-spacing:0px;word-spacing:0px;writing-mode:lr-tb;text-anchor:middle;fill:#000000;fill-opacity:1;stroke:none;stroke-width:1px;stroke-linecap:butt;stroke-linejoin:miter;stroke-opacity:1"
       x="820.82758"
       y="658.5061"
       id="text3566-7-6"
       sodipodi:linespacing="100%"><tspan
         sodipodi:role="line"
         id="tspan3568-5-0"
         x="820.82758"
         y="658.5061"
         style="font-size:28.51517487px;line-height:100%">Interacciones</tspan></text>
    <text
       xml:space="preserve"
       style="font-style:normal;font-variant:normal;font-weight:normal;font-stretch:normal;font-size:9.77663136px;line-height:100%;font-family:aria;-inkscape-font-specification:aria;text-align:center;letter-spacing:0px;word-spacing:0px;writing-mode:lr-tb;text-anchor:middle;fill:#000000;fill-opacity:1;stroke:none;stroke-width:1px;stroke-linecap:butt;stroke-linejoin:miter;stroke-opacity:1"
       x="679.92981"
       y="121.59824"
       id="text3566-70-8"
       sodipodi:linespacing="100%"><tspan
         sodipodi:role="line"
         id="tspan3568-9-7"
         x="679.92981"
         y="121.59824"
         style="font-size:20.36798096px;line-height:100%">Bosones Gauge</tspan><tspan
         sodipodi:role="line"
         x="679.92981"
         y="141.96622"
         style="font-size:15px;line-height:100%"
         id="tspan5862"> (portadores interacciones fundamentales)</tspan></text>
    <text
       xml:space="preserve"
       style="font-style:normal;font-variant:normal;font-weight:normal;font-stretch:normal;font-size:9.77663136px;line-height:100%;font-family:aria;-inkscape-font-specification:aria;text-align:center;letter-spacing:0px;word-spacing:0px;writing-mode:lr-tb;text-anchor:middle;fill:#000000;fill-opacity:1;stroke:none;stroke-width:1px;stroke-linecap:butt;stroke-linejoin:miter;stroke-opacity:1"
       x="709.54144"
       y="253.994"
       id="text3566-3-2-3-7-8"
       sodipodi:linespacing="100%"><tspan
         sodipodi:role="line"
         id="tspan3568-56-9-6-6-6"
         x="712.78363"
         y="253.994"
         style="font-size:20.36798096px;line-height:100%">Interacción </tspan><tspan
         sodipodi:role="line"
         x="709.54144"
         y="274.362"
         style="font-size:20.36798096px;line-height:100%"
         id="tspan5864-2">débil</tspan></text>
    <rect
       style="opacity:1;fill:#2ad4ff;fill-opacity:1;fill-rule:nonzero;stroke:#000000;stroke-width:0.13242437;stroke-linejoin:miter;stroke-miterlimit:4;stroke-dasharray:none;stroke-dashoffset:0;stroke-opacity:1"
       id="rect4009-7-4-2-8-0-4-3-8"
       width="137.48293"
       height="54.209564"
       x="802.61249"
       y="229.21793"
       ry="15.5" />
    <text
       xml:space="preserve"
       style="font-style:normal;font-variant:normal;font-weight:normal;font-stretch:normal;font-size:9.77663136px;line-height:100%;font-family:aria;-inkscape-font-specification:aria;text-align:center;letter-spacing:0px;word-spacing:0px;writing-mode:lr-tb;text-anchor:middle;fill:#000000;fill-opacity:1;stroke:none;stroke-width:1px;stroke-linecap:butt;stroke-linejoin:miter;stroke-opacity:1"
       x="872.42908"
       y="252.28687"
       id="text3566-3-2-3-7-8-3"
       sodipodi:linespacing="100%"><tspan
         sodipodi:role="line"
         id="tspan3568-56-9-6-6-6-0"
         x="875.67126"
         y="252.28687"
         style="font-size:20.36798096px;line-height:100%">Interacción </tspan><tspan
         sodipodi:role="line"
         x="872.42908"
         y="272.65488"
         style="font-size:20.36798096px;line-height:100%"
         id="tspan5864-2-1">fuerte</tspan></text>
    <rect
       style="opacity:1;fill:#55ddff;fill-opacity:1;fill-rule:nonzero;stroke:#000000;stroke-width:0.15060307;stroke-linejoin:miter;stroke-miterlimit:4;stroke-dasharray:none;stroke-dashoffset:0;stroke-opacity:1"
       id="rect4009-7-4-2-8-0-4-7-7"
       width="228.58459"
       height="42.170574"
       x="495.24155"
       y="404.20041" />
    <text
       xml:space="preserve"
       style="font-style:normal;font-variant:normal;font-weight:normal;font-stretch:normal;font-size:9.77663136px;line-height:100%;font-family:aria;-inkscape-font-specification:aria;text-align:center;letter-spacing:0px;word-spacing:0px;writing-mode:lr-tb;text-anchor:middle;fill:#000000;fill-opacity:1;stroke:none;stroke-width:1px;stroke-linecap:butt;stroke-linejoin:miter;stroke-opacity:1"
       x="616.59033"
       y="429.85095"
       id="text3566-3-2-3-3-8-7-8"
       sodipodi:linespacing="100%"><tspan
         sodipodi:role="line"
         x="616.59033"
         y="429.85095"
         style="font-style:normal;font-variant:normal;font-weight:normal;font-stretch:normal;font-size:20.36798096px;line-height:100%;font-family:'Times New Roman';-inkscape-font-specification:'Times New Roman, '"
         id="tspan6052">Unificación electrodébil</tspan></text>
    <rect
       style="opacity:1;fill:#2ad4ff;fill-opacity:1;fill-rule:nonzero;stroke:#000000;stroke-width:0.15020283;stroke-linejoin:miter;stroke-miterlimit:4;stroke-dasharray:none;stroke-dashoffset:0;stroke-opacity:1"
       id="rect4009-7-4-2-8-0-4-7-5"
       width="138.87936"
       height="69.041031"
       x="803.19702"
       y="306.04041" />
    <text
       xml:space="preserve"
       style="font-style:normal;font-variant:normal;font-weight:normal;font-stretch:normal;font-size:9.77663136px;line-height:100%;font-family:aria;-inkscape-font-specification:aria;text-align:center;letter-spacing:0px;word-spacing:0px;writing-mode:lr-tb;text-anchor:middle;fill:#000000;fill-opacity:1;stroke:none;stroke-width:1px;stroke-linecap:butt;stroke-linejoin:miter;stroke-opacity:1"
       x="872.76428"
       y="324.77692"
       id="text3566-3-2-3-3-8-7-7"
       sodipodi:linespacing="100%"><tspan
         sodipodi:role="line"
         x="872.76428"
         y="324.77692"
         style="font-style:normal;font-variant:normal;font-weight:normal;font-stretch:normal;font-size:20.36798096px;line-height:100%;font-family:'Times New Roman';-inkscape-font-specification:'Times New Roman, '"
         id="tspan5642-3-4">QCD</tspan><tspan
         sodipodi:role="line"
         x="872.76428"
         y="345.1449"
         style="font-style:normal;font-variant:normal;font-weight:normal;font-stretch:normal;font-size:20.36798096px;line-height:100%;font-family:'Times New Roman';-inkscape-font-specification:'Times New Roman, '"
         id="tspan6077-9">Cromodinámica</tspan><tspan
         sodipodi:role="line"
         x="872.76428"
         y="365.51288"
         style="font-style:normal;font-variant:normal;font-weight:normal;font-stretch:normal;font-size:20.36798096px;line-height:100%;font-family:'Times New Roman';-inkscape-font-specification:'Times New Roman, '"
         id="tspan6073-9">Cuántica</tspan></text>
    <rect
       style="opacity:1;fill:#cccccc;fill-opacity:1;fill-rule:nonzero;stroke:#999999;stroke-width:0.16031533;stroke-linejoin:miter;stroke-miterlimit:4;stroke-dasharray:none;stroke-dashoffset:0;stroke-opacity:1"
       id="rect4009-7-4-2-8-0-4-7-7-9"
       width="259.07742"
       height="42.160858"
       x="602.0282"
       y="474.00174" />
    <text
       xml:space="preserve"
       style="font-style:normal;font-variant:normal;font-weight:normal;font-stretch:normal;font-size:9.77663136px;line-height:100%;font-family:aria;-inkscape-font-specification:aria;text-align:center;letter-spacing:0px;word-spacing:0px;writing-mode:lr-tb;text-anchor:middle;fill:#808080;fill-opacity:1;stroke:none;stroke-width:1px;stroke-linecap:butt;stroke-linejoin:miter;stroke-opacity:1;"
       x="731.67358"
       y="492.36923"
       id="text3566-3-2-3-3-8-7-8-3"
       sodipodi:linespacing="100%"><tspan
         sodipodi:role="line"
         x="731.67358"
         y="492.36923"
         style="font-style:italic;font-variant:normal;font-weight:normal;font-stretch:normal;font-size:20.36798096px;line-height:100%;font-family:'Times New Roman';-inkscape-font-specification:'Times New Roman, Italic';fill:#808080;"
         id="tspan6161">GUT</tspan><tspan
         sodipodi:role="line"
         x="731.67358"
         y="512.73724"
         style="font-style:italic;font-variant:normal;font-weight:normal;font-stretch:normal;font-size:20.36798096px;line-height:100%;font-family:'Times New Roman';-inkscape-font-specification:'Times New Roman, Italic';fill:#808080;"
         id="tspan6186">Teoría de la Gran Unificación</tspan></text>
    <text
       xml:space="preserve"
       style="font-style:normal;font-variant:normal;font-weight:normal;font-stretch:normal;font-size:9.77663136px;line-height:100%;font-family:aria;-inkscape-font-specification:aria;text-align:center;letter-spacing:0px;word-spacing:0px;writing-mode:lr-tb;text-anchor:middle;fill:#999999;fill-opacity:1;stroke:none;stroke-width:1px;stroke-linecap:butt;stroke-linejoin:miter;stroke-opacity:1;"
       x="932.98218"
       y="573.22205"
       id="text3566-3-2-3-3-8-7-8-3-0"
       sodipodi:linespacing="100%"><tspan
         sodipodi:role="line"
         x="932.98218"
         y="573.22205"
         style="font-style:italic;font-variant:normal;font-weight:normal;font-stretch:normal;font-size:20.36798096px;line-height:100%;font-family:'Times New Roman';-inkscape-font-specification:'Times New Roman, Italic';fill:#999999;"
         id="tspan6161-8">TOE</tspan><tspan
         sodipodi:role="line"
         x="932.98218"
         y="593.59003"
         style="font-style:italic;font-variant:normal;font-weight:normal;font-stretch:normal;font-size:20.36798096px;line-height:100%;font-family:'Times New Roman';-inkscape-font-specification:'Times New Roman, Italic';fill:#999999;"
         id="tspan6188">Teoría Del Todo</tspan></text>
    <path
       style="fill:none;fill-rule:evenodd;stroke:#000000;stroke-width:1;stroke-linecap:butt;stroke-linejoin:miter;stroke-miterlimit:4;stroke-dasharray:none;stroke-opacity:1"
       d="m 518.02734,376.341 0.1783,12.84417 187.88811,0.65284 0.0576,-106.74674"
       id="path5308-2-8-8-8-7"
       inkscape:connector-curvature="0"
       sodipodi:nodetypes="cccc" />
    <rect
       style="opacity:1;fill:#00aad4;fill-opacity:1;fill-rule:nonzero;stroke:#000000;stroke-width:0.11394439;stroke-linejoin:miter;stroke-miterlimit:4;stroke-dasharray:none;stroke-dashoffset:0;stroke-opacity:1"
       id="rect4009-7-4-2-8-0-9-9-9-8"
       width="111.9745"
       height="49.278297"
       x="952.30109"
       y="229.68355"
       ry="12" />
    <text
       xml:space="preserve"
       style="font-style:normal;font-variant:normal;font-weight:normal;font-stretch:normal;font-size:9.77663136px;line-height:100%;font-family:aria;-inkscape-font-specification:aria;text-align:center;letter-spacing:0px;word-spacing:0px;writing-mode:lr-tb;text-anchor:middle;fill:#000000;fill-opacity:1;stroke:none;stroke-width:1px;stroke-linecap:butt;stroke-linejoin:miter;stroke-opacity:1"
       x="1006.9582"
       y="250.34964"
       id="text3566-3-2-3-6-3-2"
       sodipodi:linespacing="100%"><tspan
         sodipodi:role="line"
         id="tspan3568-56-9-6-1-3-5"
         x="1006.9582"
         y="250.34964"
         style="font-size:18.75px;line-height:100%">Mecanismo</tspan><tspan
         sodipodi:role="line"
         x="1006.9582"
         y="269.09964"
         style="font-size:18.75px;line-height:100%"
         id="tspan6129-3">Higgs</tspan></text>
    <path
       style="fill:#ff9955;fill-rule:evenodd;stroke:#000000;stroke-width:1px;stroke-linecap:butt;stroke-linejoin:miter;stroke-opacity:1"
       d="m 706.05701,229.96535 0,-23.75"
       id="path5308-2-8-8-83-4-9"
       inkscape:connector-curvature="0"
       sodipodi:nodetypes="cc" />
    <path
       style="fill:#ff9955;fill-rule:evenodd;stroke:#000000;stroke-width:1px;stroke-linecap:butt;stroke-linejoin:miter;stroke-opacity:1"
       d="m 870.55701,229.46535 0,-23.75"
       id="path5308-2-8-8-83-4-0"
       inkscape:connector-curvature="0"
       sodipodi:nodetypes="cc" />
    <path
       style="fill:#ff9955;fill-rule:evenodd;stroke:#000000;stroke-width:1px;stroke-linecap:butt;stroke-linejoin:miter;stroke-opacity:1"
       d="m 518.05701,306.46535 0,-23.75"
       id="path5308-2-8-8-83-4-9-2"
       inkscape:connector-curvature="0"
       sodipodi:nodetypes="cc" />
    <path
       style="fill:#ff9955;fill-rule:evenodd;stroke:#000000;stroke-width:1px;stroke-linecap:butt;stroke-linejoin:miter;stroke-opacity:1"
       d="m 608.49864,405.06725 0,-15.75"
       id="path5308-2-8-8-83-4-9-2-0"
       inkscape:connector-curvature="0"
       sodipodi:nodetypes="cc" />
    <path
       style="fill:none;fill-rule:evenodd;stroke:#000000;stroke-width:1;stroke-linecap:butt;stroke-linejoin:miter;stroke-miterlimit:4;stroke-dasharray:none;stroke-opacity:1"
       d="m 706.00066,389.59567 303.85364,-0.0543 0.7651,-109.57517"
       id="path5308-2-8-8-8-7-1"
       inkscape:connector-curvature="0"
       sodipodi:nodetypes="ccc" />
    <path
       style="fill:#ff9955;fill-rule:evenodd;stroke:#000000;stroke-width:1px;stroke-linecap:butt;stroke-linejoin:miter;stroke-opacity:1"
       d="m 1008.2883,228.84237 0,-23.75"
       id="path5308-2-8-8-83-4-0-9"
       inkscape:connector-curvature="0"
       sodipodi:nodetypes="cc" />
    <path
       style="fill:#ff9955;fill-rule:evenodd;stroke:#000000;stroke-width:1px;stroke-linecap:butt;stroke-linejoin:miter;stroke-opacity:1"
       d="m 870.40243,306.62412 0,-23.75"
       id="path5308-2-8-8-83-4-9-2-6"
       inkscape:connector-curvature="0"
       sodipodi:nodetypes="cc" />
    <path
       style="fill:none;fill-rule:evenodd;stroke:#999999;stroke-width:1;stroke-linecap:butt;stroke-linejoin:miter;stroke-miterlimit:4;stroke-dasharray:none;stroke-opacity:1"
       d="m 608.75609,445.3905 0.1783,12.84417 262.13432,-0.0543 0.0576,-82.70511"
       id="path5308-2-8-8-8-7-2"
       inkscape:connector-curvature="0"
       sodipodi:nodetypes="cccc" />
    <path
       style="fill:#ff9955;fill-rule:evenodd;stroke:#999999;stroke-width:1px;stroke-linecap:butt;stroke-linejoin:miter;stroke-opacity:1"
       d="m 734.30932,473.69937 0,-15.75"
       id="path5308-2-8-8-83-4-9-2-0-1"
       inkscape:connector-curvature="0"
       sodipodi:nodetypes="cc" />
    <rect
       style="opacity:1;fill:#ff00ff;fill-opacity:1;fill-rule:nonzero;stroke:#000000;stroke-width:0.12702534;stroke-linejoin:miter;stroke-miterlimit:4;stroke-dasharray:none;stroke-dashoffset:0;stroke-opacity:1"
       id="rect4009-7-4-2-8-0-4-3-8-2"
       width="126.48833"
       height="54.214962"
       x="1077.818"
       y="226.36964"
       ry="15.501544" />
    <text
       xml:space="preserve"
       style="font-style:normal;font-variant:normal;font-weight:normal;font-stretch:normal;font-size:9.77663136px;line-height:100%;font-family:aria;-inkscape-font-specification:aria;text-align:center;letter-spacing:0px;word-spacing:0px;writing-mode:lr-tb;text-anchor:middle;fill:#000000;fill-opacity:1;stroke:none;stroke-width:1px;stroke-linecap:butt;stroke-linejoin:miter;stroke-opacity:1"
       x="1141.6372"
       y="260.44128"
       id="text3566-3-2-3-7-8-3-0"
       sodipodi:linespacing="100%"><tspan
         sodipodi:role="line"
         x="1141.6372"
         y="260.44128"
         style="font-size:20.36798096px;line-height:100%"
         id="tspan5864-2-1-3">Gravedad</tspan></text>
    <rect
       style="opacity:1;fill:#cccccc;fill-opacity:1;fill-rule:nonzero;stroke:#000000;stroke-width:0.14244345;stroke-linejoin:miter;stroke-miterlimit:4;stroke-dasharray:none;stroke-dashoffset:0;stroke-opacity:1"
       id="rect4009-7-4-2-8-0-4-7-5-1"
       width="124.88712"
       height="69.04879"
       x="1078.4012"
       y="306.19095" />
    <text
       xml:space="preserve"
       style="font-style:italic;font-variant:normal;font-weight:normal;font-stretch:normal;font-size:9.77663136px;line-height:100%;font-family:'Times New Roman';-inkscape-font-specification:'Times New Roman, Italic';text-align:center;letter-spacing:0px;word-spacing:0px;writing-mode:lr-tb;text-anchor:middle;fill:#999999;fill-opacity:1;stroke:none;stroke-width:1px;stroke-linecap:butt;stroke-linejoin:miter;stroke-opacity:1;"
       x="1140.9724"
       y="333.93134"
       id="text3566-3-2-3-3-8-7-7-1"
       sodipodi:linespacing="100%"><tspan
         sodipodi:role="line"
         x="1140.9724"
         y="333.93134"
         style="font-style:italic;font-variant:normal;font-weight:normal;font-stretch:normal;font-size:20.36798096px;line-height:100%;font-family:'Times New Roman';-inkscape-font-specification:'Times New Roman, Italic';fill:#999999;"
         id="tspan6073-9-5">Gravedad</tspan><tspan
         sodipodi:role="line"
         x="1140.9724"
         y="354.29932"
         style="font-style:italic;font-variant:normal;font-weight:normal;font-stretch:normal;font-size:20.36798096px;line-height:100%;font-family:'Times New Roman';-inkscape-font-specification:'Times New Roman, Italic';fill:#999999;"
         id="tspan6452">cuántica</tspan></text>
    <path
       style="fill:#ff9955;fill-rule:evenodd;stroke:#000000;stroke-width:1px;stroke-linecap:butt;stroke-linejoin:miter;stroke-opacity:1"
       d="m 1138.7651,229.61975 0,-23.75"
       id="path5308-2-8-8-83-4-0-6"
       inkscape:connector-curvature="0"
       sodipodi:nodetypes="cc" />
    <path
       style="fill:#ff9955;fill-rule:evenodd;stroke:#000000;stroke-width:1px;stroke-linecap:butt;stroke-linejoin:miter;stroke-opacity:1"
       d="m 1138.6106,306.77852 0,-23.75"
       id="path5308-2-8-8-83-4-9-2-6-7"
       inkscape:connector-curvature="0"
       sodipodi:nodetypes="cc" />
    <path
       style="fill:none;fill-rule:evenodd;stroke:#999999;stroke-width:1;stroke-linecap:butt;stroke-linejoin:miter;stroke-miterlimit:4;stroke-dasharray:none;stroke-opacity:1"
       d="m 733.78609,516.1689 -0.23591,22.25839 404.13432,-0.76141 0.058,-161.70512"
       id="path5308-2-8-8-8-7-2-7"
       inkscape:connector-curvature="0"
       sodipodi:nodetypes="cccc" />
    <path
       style="fill:#ff9955;fill-rule:evenodd;stroke:#999999;stroke-width:1px;stroke-linecap:butt;stroke-linejoin:miter;stroke-opacity:1"
       d="m 935.04352,554.17036 0,-15.75"
       id="path5308-2-8-8-83-4-9-2-0-1-0"
       inkscape:connector-curvature="0"
       sodipodi:nodetypes="cc" />
    <text
       xml:space="preserve"
       style="font-style:normal;font-variant:normal;font-weight:normal;font-stretch:normal;font-size:12px;line-height:100%;font-family:aria;-inkscape-font-specification:aria;text-align:center;letter-spacing:0px;word-spacing:0px;writing-mode:lr-tb;text-anchor:middle;display:inline;fill:#000000;fill-opacity:1;stroke:none;stroke-width:1px;stroke-linecap:butt;stroke-linejoin:miter;stroke-opacity:1"
       x="852.7843"
       y="688.09509"
       id="text9572"
       sodipodi:linespacing="100%"><tspan
         sodipodi:role="line"
         id="tspan9574"
         x="854.69446"
         y="688.09509"
         style="line-height:100%">Basado en https://commons.wikimedia.org/wiki/File:Particle_overview.svg de HeadBomb. </tspan><tspan
         sodipodi:role="line"
         x="852.7843"
         y="700.09509"
         id="tspan4369"
         style="line-height:100%"> enrique@fiquipedia.es Revisado 20 marzo 2017</tspan></text>
    <image
       y="675.17865"
       x="1127.4792"
       id="image4366"
       xlink:href="data:image/png;base64,iVBORw0KGgoAAAANSUhEUgAAAHYAAAApCAYAAADgf90zAAAABHNCSVQICAgIfAhkiAAAF21JREFU eJztnHl01EW2xz+/X+/dSTfphLCFsJjAIKBsIVEIYRsgUWZAdhAZAZcHbwhPBhhhDmJQB/cBFIen IIugEkGRIJiEoIIgS8KWxAjRsIpZCEk6pDu91fujzU/aBCSLM2fO83tOH7pTt+pW/W7Vrbv9kIB7 ZJW8OiAgoIOE5OU3/MdCIOTKysoCr8c7SwKO/Pf//Dmq7z19cTld/+65/Wsg3fBd/Av5/cq8NFoN Rw4d4bVXVx1VWyyWO6JiorBYLLjd7vqPJoEsyUiy5PtXkhBC4BVehFcghO/z74QkSajUajQaNbIk 4/V68QqBSvbN2+P24HQ58XqaRmFJkoRarUaj0SBJEh6vByFQ+LndblwuV5Pxq4FarSYqJgqzxXKH GsDlcuH2ePB4PLc9iEqlQqfT4fV6qaqqwm63c/36dartDnR6PSaTCb1Bj9FkRCWrcDqdDds4jYRW q0WSJa5c/p6c7BzOF5yjvKwCp7OawMBAgqxWunTtQkSnCJo1a0Z1dXW9nsPPodPpEMClixfJOZ3D hfMXKC8rx+VyYzYHYg0J5s6ud3JH5B2YzWYcDgdebxMJWJJwuVxIgBoA4a+dbgW1Wo1Wp6W4qJjM I5lkHcviXEEBlbbrVFc7cDldaDQadHodJpOJ8Pbh3N2rB1F9o2jVutW/TMCSLKPX68g/k88H7yVz 5NARXK6bXzXBIcEkjExgxH3xBJoDcTgc9eInyzI6nY683DyS391K1rGsW64ztEUo948aybD4YRgM Bqqrq+vFry5IoKh7yWKxXH35tVes1mDrLz5wg8FAaWkpH2/fQfqn6ZSXld82U6PJSNygOEaPG03r Nm2w2+2/moqWZRmNVsO297axZeNm3G43Wq2WPn36EBcXR9u2bTGZTJSUlJCbm0tGRgYFBQUAtG7T msT5c+narStVVVW3xU+lUqFSqdiycQsfvJeM1+tFp9MRHR1NbGwsbdu2Ra/XU1JSQnZ2Nnv37uXi xYsAtOvQnrnz5xLRKQJ7lb1R61ar1ZReLWXefz9ReluClSQJo8nI0a+O8vo/XqO4qNivvUWLFnTu 3JmQkBCsVivl5eWUlJTw7bffcuHCBT/awMBAps2YxrCE4ThdLryNUHt1QZZlVCoVa1b9kz2f7AHg j3/8I08//TR33313nX2cTifbtm1jyZIl5Ofno9frmTt/Lv3jYn9RuLJKhQSsfHkFn2d8DsDEiRNZ smQJXbp0qbOPw+Fgy5YtPP3001y4cIGAgAD+smg+ffr2ue3NVBfqJVhJktDp9ezakcK6NWsVdabR aBg/fjxTp04lOjqaZs2a1epbVVVFVlYWycnJrFu3jsrKSqUtYWQCM//rEYQQjbrTfg6DwcCmtzey dctWZFnmlVdeITEx0Y9m9erVHDhwgIULF/oJu6ysjIceeoidO3diMBh46tml3NntzpuqZUmS0Ol0 vLn6f9n50U60Wi2rV69mxowZtzXXwsJCpkyZwt69ewk0B5K0fBkd7+jYYLV8o2BVer1+4fCE4QaD 0VDnJW40GXn/nfd4+3/XKe0DBw4kOTmZ2bNnExERgV6vr5ORRqMhPDyc+Ph4Jk2aRFFREdnZ2QCc PXOWosIiou+NAWgStWwwGDh44CBrXvsnAGvWrGHWrFl+NAcOHGDs2LFkZ2dz+vRppk+frrTp9XrG jx/PyZMnyc7OJi83j9hBA9BqtXXOz2g0sjdtLxvXbgBg8+bNTJ061Y+moKCAAwcOkJOTg81mw2q1 otFoAAgICGDcuHF89dVX5OXl8e2ZfAYMGoBKpWrQ85BlGbvdTuonn9rlWxEaTUb2pWXwzvp3lL/N mjWL1NRUevXqVS+mHTp0YMuWLbz66quoVCoA9qXvY8PaDej0unov4ueQZZnr16/z/ub3AJg7dy6P PPJILTqLxYLBYACgefPmtdpVKhXr1q2jc+fOXLp4iT0pe9DqtHXSlZWV8cG7yQAsWbKECRMmKO3l 5eVMnz6dLl268Ic//IExY8YQHR1N9+7d2bBhg0JnMBjYsGEDbdu2Jf9sPntT96K7yUGpD256YnU6 HWfyzvDisy8o6nfRokW8/PLLimAagpiYGCIiIti+fTsA33ydR1jbMCI6ReB2Ndxa1uv1HNz/JZ98 /AlhYWFs2rQJk8nkRyOEoEWLFvTt25euXbuyYMECLBZLrbEMBgPNmjXjww8/5IcrPxA3OA6tzv/U GgwGMtIy2Ju6l8jISNavX49O59ugbreb0aNHs23bNjweDyqVCr1ej8fjobS0lI8++ghZlomLiwPA bDZjMBjYtWsXRYWFDBoyqEGn9hdPrCRJuF1uNry1XrnMJ0+ezLPPPlsvRjfD5MmTee6555Tfm9Zt 5NrVa43aMEIIjh05BsDUqVMJDQ2tRbNo0SJat27NvHnzSE5OZsiQIURGRnL06NFatA888AAdO3ak qLCI/DP5aDT+p9bj8XD0sK/f9OnTMZvNP61n0yZSU1MBGDx4MEePHuXcuXPs2rWLdu3aAbB06VL2 79+v9JkwYQKtWrXi0oVLnPvuHGqNusHPAqBOwer1eg59eYjTJ08DEBkZyerVqxvF6Od48sknGTFi BAA/XPmBtE/TGqySZVnGZrNxJu8MAAkJCXXSffHFF1y5coXTp0+TmZnJ2bNnyc/PJy8vrxat0Whk 4MCBAOR9nYf6hk1Xo4bP5H0DoKwDwG63s2XLFsB3QJYtW0bPnj0JDQ0lPj6el156CfBtxDfffFPp FxQURL9+/QA4+81ZVKomFqz0Y/SixlUA306vS2U1Fn/729+QZd8U9qVlYCuvUH7XB7IsY6+qorS0 FJPJRMeOHW9KVx907twZgGtXS/2uKVmWqbRVYquw0bx5c9q2bau0ZWZm8tVXXwG+A2K3+/umsbGx hISEAHDkyBE/C7iGX0lJCdLtRoxuglrbQq1Rc+67c3yT69vF3bp1Y8qUKX40QgjS0tLYvXs3NpuN 9u3bM3LkSD/Xwel0snPnTvbt20d1dTWRkZGMHj2ayMhIhaZfv34kJCSQkpLCpYuXyPv6G3pH9a53 1EeSJBwOB9WOaiyhFgICAurV/2aoEUBFhc1PsJIkUXW9Cq/Xi8Xiz69///5s3LiRhx9+mDfeeIMh Q4b4jWm1WrFYLJSUlFBSUoLNZlPuZqvVCoCtwtboudcSrEatIS83TzGY4uPjFfMcfAJ7+OGHFXVT gyVLlrBs2TIWL15MWVkZ48aNIz093Y/mqaeeYtWqVcycOVP52/33309KSgoAudm5REVH1XsRQgg0 Gi1qjdon4Jv4gfX1lysqKgAwGPRI8k9HSAiB7kdLuaqqCofDoQgHYPTo0QwZMsTv3q3B9evXFbtF p9P5PdsaP99gaLxVXEs3CQQXzv8ULRo+fLhfe1JSkiLU4cOHs3btWiZMmIAQgldffZXLly+zYMEC RagTJ05k7dq1DB06FIfDwUsvvcS1a9eU8fr3749a7dtfly5ewivqHxAXQmAwGrBYLFRUVHDp0qU6 6RYsWMDvf/975bdWq2XBggVER0fXSV8TNWsW1MxPjXu9XgICAzGZTBQVFVFc/FMkTghBUlISCxYs YP78+crmqEFOTg5XrlwB4I477vC74mrCmkHWoEan+GqdWOEVlJX6HrxOp/O7P8rLyxUfrEuXLmzf vh2j0cikSZMYNGgQI0eOxO128+677wI+o6Lm+/3338/27dsZM2YMQUFBypgtWrQgKCiI4uJibBU2 PB6Pkvq7XXi9XsxmM+07tudqyVU+++wzevbsWYtu1KhRnD17lrS0NMAn2NmzZxMeHl7nuDVWa4c7 OiK8P83H6/ViaWahXYd25Gbnsn//fiIiIgCfms7OziY52eff9urVi0mTJgE+N2j58uXKOGPHjlW+ V1dXc+jQIQDad+zQ6IyP34mVJAm3x015uS+4bzab/YRw7tw5vv/+ewD69u2L0WgEfD7dY489RuvW rTlz5oyiUgYPHqz0DQ0N5fHHH68VFDCbzQQGBgJQabPhdFQj1dNyEEKgVqvpHdUH8EWAnE5nnbS3 q44PHDjAsWPHMBoNdLnzd36ZISEEOr2OXlG9Adi4caNf3zlz5iiu28yZM5k4cSJz584lKipKuXZi YmL8Aih79+7lm2++wRpsJbJz5C0zUbeD2qrYK5TdUhNQr4Hb7VbabuZz3hhvvvH+uOkEbuBRkwBv CKqd1cT0iyGkeQiZmZm89dZbDRqnBsuWLQOg34D+tGjZslYc3VntJDYulkBzIJ999hmbN29W2vr3 789rr72GWq2mqqqK999/nxUrVnDixAkA7r33XrZu3apEwNxuN8888wwAsQMHYLVaGx0/9xOszwjR EPjjpW+z2SgrK1PaW7durQT7c3Jy/AZKS0ujsLCQ9u3bK3fmjY6/x+MhJSWFkpISv36VlZXYbD4r MCAwwJeoboBwPW4PoS1CeWD8AwDMnz/fLwBw4xpv/F4Xr0WLFpGamorRaGTU2NF1PmS3201Y2zD+ 8MAfAd8pzcrKUtoff/xxjhw5wpw5cxgyZAh9+/Zl7NixvPPOO2RkZPhdcU888QSHDh0iyBrEyFEj G31a4SZ+bLMgn/CqqqooKipS2lq1aqUYH4cPH2bu3LlkZmaycuVK7rvvPrp06YIkSYqJn5yczHPP PUdmZiZJSUmMHDmS6OhoCgsLlTGvXr2qqP6AgADUanWDEwL2Kjsj7osn9sd025gxY9i3b58fjcVi wWq1EhYWRnh4uLIJwSfoRYsW8fe//x2AGY/PJLxd+E0ftN1uZ9SYUfTu24fS0lJGjRrF4cOHlfae PXuyYsUK0tPTOXz4MMnJyUyZMkWxoD0eD4mJiaxatQqAR2Y9SouWLZqkEKFOwbZq3Ur5/fnnn/u1 v/jii4ojvWLFCvr06UNiYiIul4uxY8fSuXNnnn/+eVq2bInL5WLx4sX06dOHpKQkwBdObNGihTLe 0aNHFSe+VetWSA0IUNSgZkP8V+Isut3dneLiYhISEkhKSlK0wqxZsyguLqagoICcnBzatGkDwKlT p0hISFCEOvmhKQxLGH5Ln9rr9aJWq0mcl0hk505cvHiRoUOH8vLLL/9iXvXYsWMMHTqUlStXAr5N NGDQgFoBjYaiVj5Wp9ORm53Lk/P+CvgiJV988YVfp+LiYl5//XXS09Ox2Wy0a9eOqVOnMm7cOIXm woULrFq1iv379+NwOIiMjGTmzJm13Kdp06YpxseCvy0kNi620YvTaDQ4nU7+ueoN9qX7TmxYWJji X7Zr106pBjl9+jQ7d+4kLS2N6upqdHodj856jGEJw3DYHbelPTRaDVXXq3j9H69xcP9BwJfNGjVq FAMHDqRNmzbo9XquXr1KdnY2O3bsICMjA7fbjclkYlbibOIGxzW6quSWiXZZ9lXx/fWJhXyX/x0A n376KcOGDWsww5shPz+fPn36UF5eTrOgZrzy+qtYLJYmSbyr1CpUsoovPvuC5C1buXjh4i3pZVkm pt89TJg8gY6RHX2bqx7PWK1Wg+RLRX7wbjJXvr9y6/mpVMQOjGXcpPGEtw9vdFlMzRxqBFvLj/V6 vRiNRoYMG6II9plnnmHo0KENiuPeCsuXL1fu1/4D+tM8tHmTLBB8xpRX8jJo6GCioqM4ffI0WUcz Kfi2gIqKCpwuFwEmE9ZgK127d6Nnn55EdIpAeEWD5uB2u5EkieEJw4m5N4ZTJ06SdTSL8+fOU1Fe 4TudASZCQkLofvdd9Ojdg44RHfF6vE225htRZwrBUe1g4JBB7Nm1h4vnL7J//36SkpJYunRpkzF+ 7733WLt2LQCmgADiRyY0Kh9bF4QQ2Kuq0Gg0xNwbwz3978FZ7cTlcuHxeNBqtWg0GtQaNW6Xm2pH 4yoFhRBUXa9Cp9PRf0As/QfE4nT+jJ9Wg1qtxuV04bDXLyZeH6iRQKfTotPpFH/S7XYTaA5k2vRp PLv0WYQQPP3003To0IFp06Y1mumBAwd49NFHld9jJoyhXft2tWKuTQkhBMLjc+e0Wi1IPxpbwne6 a+qXmgo1/r5Go0Gj1fwUTfuRX025alNCrVb7YtgSqN1uN7k5X2M2m/F4PHi9XsLbhRNoDiSm3z08 NP0hNvxY0zNjxgzKy8uZM2dOg5lv376d6dOnK1Zq9L0xjBozCqfLib3KTu53uU2u8v+/QKVSUVFR obhLV/GZCcon+p5o8dGnO8QHu7aLj1N3ihH3jfBrnzFjhigsLBT1QUVFhVi8eLGQZVkZp2v3rmLz ti3iw90fiY/TUsTAIYPEz+fy26dBn6sqYCFguFHyly9dJjg4mK7duuJwOOgTHYXT6SIv92sAjh8/ zttvv43T6aRNmzYEBQXdNL576dIlNmzYwIMPPkhKSopizvePi2XeX+dhNBrRarV8nvEZWzZurnOM 31Bv2CV8J9b68xadXsdTzyzlrp534bA70Ov17Nm1h7f++abfpa/VaunVqxc9evSgZcuWBAcHU1ZW RmFhIdnZ2Rw5csTPWZdlmfGTxzNx6iS8Hi8arYazeWdY8uQSKm2VP59Go6BSqQgODkalUilVjGVl ZRiNRqxWK4WFhUpUyWq1otPplJRaQ6HRaOjatSuSJJGTk+OXjLBYLGg0mlph1V8BpVCHKq75BIcE i3+s/odISd8ltn6cLFLSd4mVa1aJ6Huj/VTqbX0kxF097hJ/f2W52Jm+SyTv/EDsTE8Rq9e+IVq1 bvWrqKSwsDBRUlIiSktLRVFRkbDZbOKFF14QLVu2FMXFxWLlypUCEG3bthXXrl0Tzz//fKP4NWvW TKSnp4vi4mJx7do1cerUKdG+fXulPT09XVRVVYnIyMhfXRXfUrA1k132wjPik327xQcp28SHe3aI Hak7xYsrXhIjR48U4eHhQqvV1tlXrVaLNmFtxIj7RohnX3xWfLRnh9jx6ccieecH4pOM3eKFFS+K kOYhv9oCw8PDhRBCJCYmCkAsW7ZM2O12YTKZRGJiohBCiO7du4s1a9aIkpISERoa2ih+jz76qPB6 vaJDhw7CbDaLkydPijlz5ghA9OrVS9hsNiGEEIsXL/7VBXtTVXwjtFotEx+cyKixo9FoNDgcDp// p1Zz/fp1SopLKCsro7LCRmXlddRqFYHmQEKaNye0RSgBAQF4PB6cTic6vQ6vx8uuj3fxzvp3sDfi XZVfQnh4OOfPn+f9998nIyODP/3pT1y+fJlx48ahUqk4ePAgYWFhBAcH89hjj/kVcjcEgwcPZu/e vRw/fpytW7eSnp7OsWO+kthVq1bRs2dP9u/fz7hx4+jUqVPTvT5ZG6W3Jdga3NntTiZMmUCPXj1R qXzvvHq9XmSVjEpWIcmSz4gSKO/k1FRE1LxLe/rUaZI3b+XE8RO/1qIUhIeHU1BQwJdffsmJEyeI iYnBZDIRHx/PhQsXGDRoEBkZGaSmptaKYTcUUVFRJCYmMnz4cEJCQpg+fTpvv/02hYWFbNiwgYyM DHbv3s3gwYNrZZ6aELVDirdCbnYuSxct5a4edzFo6CDu6nE31hCrL04qwCuEr4RE8hlJskpGdsu+ YPvJ03ye8TnHM7Oa/E3uW0GWZdatW8f69ev53e9+x9dff01cXBybNm0iKyuLyspKDh482CS8Fi5c SJs2bXjwwQcB+PLLL5k8eTKXL18mNDSUCRMmMHr0aMCX5foVBVt3SPFWEEJw8vhJTh4/idlipn2H 9nSM6Eir1q0wBQRgMOhxOKq5XlnJD1cK+Tb/W859V1Cvd2mbEh6Ph4ULF/LAAw/QvXt3rl69qtT9 yrLvv1ZoqoBIfn4+y5cvp1MnXwqvd+/eLFq0iNmzZ3Pw4EHi4+Oprq7mqaeeYt68eSxZsqTRVvjN 0Khy84ryCk6dOMWpE6eaaj5NimvXrvHnP/8Zs9mMVqtlz549fPLJJ5w7dw7wFRL85S9/8at8aAy2 bdtGTEwMkyZNQq/XM3bsWFJTU7Hb7WRlZSkVi6tXr6a0tPS2Socainrdsb/hPwalauAyoAPqLuv7 Df9p0AKX/w9jlXBV9MTCTgAAAABJRU5ErkJggg== "
       preserveAspectRatio="none"
       height="29.206898"
       width="84.058876" />
  </g>
</svg>
